[
    {
        "image": "image1.svg",
        "name": "Avanza 2019",
        "price": "Rp 430.000 / hari",
        "size": "medium"
    },
    {
        "image": "image1.svg",
        "name": "Honda Brio",
        "price": "Rp 430.000 / hari",
        "size": "medium"
    },
    {
        "image": "image1.svg",
        "name": "Avanza 2019",
        "price": "Rp 430.000 / hari",
        "size": "medium"
    },
    {
        "image": "image1.svg",
        "name": "Honda Brio",
        "price": "Rp 430.000 / hari",
        "size": "medium"
    }
]